<?xml version="1.0" encoding="utf-8"?>
<!-- Generator: Adobe Illustrator 18.0.0, SVG Export Plug-In . SVG Version: 6.00 Build 0)  -->
<!DOCTYPE svg PUBLIC "-//W3C//DTD SVG 1.1//EN" "http://www.w3.org/Graphics/SVG/1.1/DTD/svg11.dtd">
<svg version="1.1" id="Layer_1" xmlns="http://www.w3.org/2000/svg" xmlns:xlink="http://www.w3.org/1999/xlink" x="0px" y="0px"
	 viewBox="0 0 874 636" enable-background="new 0 0 874 636" xml:space="preserve">
<g>
	<rect x="433.1" y="295" fill="#FFFFFF" width="428.3" height="331"/>
	<rect x="14.4" y="295" fill="#FFFFFF" width="304.1" height="331"/>
	<rect x="14.4" y="10" fill="#FFFFFF" width="452.3" height="179.9"/>
	<rect x="580.9" y="10" fill="#FFFFFF" width="280.4" height="180.5"/>
	<rect x="648.5" y="495.8" fill="#E93223" width="29.1" height="4.9"/>
	
		<rect x="656.5" y="526.4" transform="matrix(-0.866 0.5 -0.5 -0.866 1516.5872 651.3091)" fill="#E93223" width="29.1" height="4.9"/>
	
		<rect x="678.7" y="549" transform="matrix(-0.5 0.866 -0.866 -0.5 1517.4021 226.7351)" fill="#E93223" width="29.1" height="4.9"/>
	<rect x="721.3" y="545.3" fill="#E93223" width="4.9" height="29.1"/>
	
		<rect x="739.9" y="549.5" transform="matrix(0.5 0.866 -0.866 0.5 855.1256 -377.4075)" fill="#E93223" width="29.1" height="4.9"/>
	<rect x="740.7" y="443.5" transform="matrix(0.5 -0.866 0.866 0.5 -8.5481 877.0662)" fill="#E93223" width="29.1" height="4.9"/>
	<rect x="722.3" y="422.9" fill="#E93223" width="4.9" height="29.1"/>
	
		<rect x="679.5" y="443" transform="matrix(-0.5 -0.866 0.866 -0.5 655.3384 1269.2731)" fill="#E93223" width="29.1" height="4.9"/>
	
		<rect x="657" y="465.2" transform="matrix(-0.866 -0.5 0.5 -0.866 1019.2381 1208.4338)" fill="#E93223" width="29.1" height="4.9"/>
	<path fill="#E93223" d="M862.3,402.6h-62.1c-7.6,0-13.8,6.2-13.8,13.8c0,7,5.3,12.8,12.1,13.6c-6.8,0.9-12.1,6.6-12.1,13.6
		c0,7.3,5.7,13.2,12.9,13.7c-7.2,0.4-12.9,6.4-12.9,13.7c0,6.6,4.6,12.1,10.8,13.4h-73.8c-7.6,0-13.8,6.2-13.8,13.8
		c0,7.6,6.2,13.8,13.8,13.8h126.6l-30.9,30.9c-5.4,5.4-5.4,14.1,0,19.5c5.4,5.4,14.1,5.4,19.5,0l23.7-23.7V402.6z"/>
	<g>
		<g>
			<circle fill="#E93223" cx="204.8" cy="140.7" r="4.9"/>
			<circle fill="#E93223" cx="240.7" cy="140.7" r="4.9"/>
			<circle fill="#E93223" cx="276.6" cy="140.7" r="4.9"/>
		</g>
	</g>
	<polygon fill="#E93223" points="612.6,41.5 673.3,76.5 612.6,111.6 	"/>
</g>
<g>
	<path fill="#E93223" d="M512.5,347.2c0-10.3,7.6-17.4,17.4-17.4c6.4,0,10.5,3.2,13.1,7.1l-4.3,2.3c-1.8-2.8-5.1-4.9-8.9-4.9
		c-7,0-12.2,5.3-12.2,12.9c0,7.5,5.2,12.9,12.2,12.9c3.8,0,7.1-2.1,8.9-4.9l4.3,2.3c-2.7,3.9-6.7,7.1-13.1,7.1
		C520.1,364.5,512.5,357.5,512.5,347.2z"/>
	<path fill="#E93223" d="M571.6,348.9h-18.6v15h-5v-33.6h5v14.1h18.6v-14.1h5v33.6h-5V348.9z"/>
	<path fill="#E93223" d="M584.1,330.4h22.5v4.4h-17.5v9.8h17.2v4.4h-17.2v10.5h17.5v4.4h-22.5V330.4z"/>
	<path fill="#E93223" d="M611.5,347.2c0-10.3,7.6-17.4,17.4-17.4c6.4,0,10.5,3.2,13.1,7.1l-4.3,2.3c-1.8-2.8-5.1-4.9-8.9-4.9
		c-7,0-12.2,5.3-12.2,12.9c0,7.5,5.2,12.9,12.2,12.9c3.8,0,7.1-2.1,8.9-4.9l4.3,2.3c-2.7,3.9-6.7,7.1-13.1,7.1
		C619.2,364.5,611.5,357.5,611.5,347.2z"/>
	<path fill="#E93223" d="M655.3,349.3l-3.2,3.6v11h-5v-33.6h5V347l14-16.7h6.2l-13.8,15.9l14.9,17.7h-6.2L655.3,349.3z"/>
	<path fill="#E93223" d="M706.3,329.8c10,0,16.9,7.4,16.9,17.4c0,10-6.9,17.4-16.9,17.4s-16.9-7.4-16.9-17.4
		C689.4,337.2,696.3,329.8,706.3,329.8z M706.3,334.3c-7.2,0-11.7,5.5-11.7,12.9c0,7.3,4.5,12.9,11.7,12.9c7.1,0,11.7-5.5,11.7-12.9
		C718,339.8,713.4,334.3,706.3,334.3z"/>
	<path fill="#E93223" d="M729.3,330.4h5.1v20.3c0,5.7,3.2,9.4,9.1,9.4c5.9,0,9-3.7,9-9.4v-20.3h5.1v20.4c0,8.4-4.7,13.8-14.1,13.8
		c-9.4,0-14.1-5.5-14.1-13.7V330.4z"/>
	<path fill="#E93223" d="M773.2,334.8h-10.4v-4.4h25.8v4.4h-10.4v29.1h-5V334.8z"/>
</g>
<g>
	<path fill="#E93223" d="M109.8,85.4c2.3,2.5,5.9,4.7,10.6,4.7c5.4,0,7.3-2.8,7.3-5.2c0-3.5-3.8-4.5-8.1-5.6
		c-5.4-1.4-11.6-3-11.6-9.8c0-5.5,4.9-9.6,11.9-9.6c5.2,0,9.3,1.7,12.2,4.7l-2.9,3.7c-2.6-2.7-6.1-3.9-9.7-3.9
		c-3.7,0-6.3,1.9-6.3,4.7c0,3,3.6,4,7.8,5c5.5,1.5,11.9,3.2,11.9,10.3c0,5.2-3.6,10.1-12.7,10.1c-6,0-10.4-2.2-13.2-5.3L109.8,85.4z
		"/>
	<path fill="#E93223" d="M138.7,60.4h22.5v4.4h-17.5v9.8h17.2v4.4h-17.2v10.5h17.5V94h-22.5V60.4z"/>
	<path fill="#E93223" d="M188.5,87.1h-16l-2.7,6.9H164l13.3-33.6h6.3L197,94h-5.7L188.5,87.1z M173.9,82.6h13.1l-6.6-17L173.9,82.6z
		"/>
	<path fill="#E93223" d="M212.3,81.1H206V94h-5V60.4h14.1c6.4,0,10.8,4.1,10.8,10.3c0,6-4.1,9.3-8.4,9.8l8.6,13.4h-5.8L212.3,81.1z
		 M214.5,64.9H206v11.8h8.5c3.6,0,6.2-2.4,6.2-5.9C220.7,67.2,218.1,64.9,214.5,64.9z"/>
	<path fill="#E93223" d="M230.7,77.2c0-10.3,7.6-17.4,17.4-17.4c6.4,0,10.5,3.2,13.1,7.1l-4.3,2.3c-1.8-2.8-5.1-4.9-8.9-4.9
		c-7,0-12.2,5.3-12.2,12.9c0,7.5,5.2,12.9,12.2,12.9c3.8,0,7.1-2.1,8.9-4.9l4.3,2.3c-2.7,3.9-6.7,7.1-13.1,7.1
		C238.3,94.6,230.7,87.6,230.7,77.2z"/>
	<path fill="#E93223" d="M289.8,79h-18.6v15h-5V60.4h5v14.1h18.6V60.4h5V94h-5V79z"/>
	<path fill="#E93223" d="M302.3,60.4h5V94h-5V60.4z"/>
	<path fill="#E93223" d="M319.9,68.6V94h-5V60.4h5.2l18.3,24.7V60.4h5V94h-4.9L319.9,68.6z"/>
	<path fill="#E93223" d="M366.7,59.9c6.3,0,10.5,2.9,13.3,6.6l-4.1,2.4c-1.9-2.6-5.3-4.5-9.2-4.5c-7,0-12.2,5.3-12.2,12.9
		c0,7.5,5.2,12.9,12.2,12.9c3.7,0,6.9-1.8,8.5-3.3v-6h-10.8v-4.4h15.8v12.3c-3.2,3.6-7.8,5.9-13.5,5.9c-9.6,0-17.4-6.9-17.4-17.4
		C349.3,66.8,357.1,59.9,366.7,59.9z"/>
</g>
<g>
	<path fill="#E93223" d="M612.8,140.8h13.1c5,0,7.9,3.1,7.9,7.1c0,3.5-2.3,5.9-4.8,6.4c3,0.5,5.4,3.5,5.4,6.9c0,4.4-2.9,7.5-8.1,7.5
		h-13.4V140.8z M625.1,152.6c2.8,0,4.3-1.8,4.3-4.1c0-2.3-1.5-4.1-4.3-4.1h-8.1v8.2H625.1z M625.3,165c2.9,0,4.7-1.7,4.7-4.4
		c0-2.3-1.6-4.3-4.7-4.3h-8.3v8.7H625.3z"/>
	<path fill="#E93223" d="M648.8,157.9h-5.2v10.7h-4.2v-27.9h11.7c5.3,0,8.9,3.4,8.9,8.6c0,5-3.4,7.7-6.9,8.2l7.1,11.2h-4.8
		L648.8,157.9z M650.6,144.5h-7v9.8h7c3,0,5.2-2,5.2-4.9C655.8,146.4,653.6,144.5,650.6,144.5z"/>
	<path fill="#E93223" d="M678.1,140.3c8.3,0,14,6.1,14,14.4s-5.7,14.4-14,14.4c-8.3,0-14-6.1-14-14.4S669.8,140.3,678.1,140.3z
		 M678.1,144.1c-6,0-9.7,4.6-9.7,10.7c0,6.1,3.8,10.7,9.7,10.7c5.9,0,9.7-4.6,9.7-10.7C687.9,148.6,684,144.1,678.1,144.1z"/>
	<path fill="#E93223" d="M712,147.1l-5.8,21.5h-4.5l-8-27.9h4.7l5.8,22.4l6.1-22.4h3.4l6.1,22.4l5.8-22.4h4.7l-7.9,27.9h-4.5
		L712,147.1z"/>
	<path fill="#E93223" d="M734.4,161.5c1.9,2.1,4.9,3.9,8.8,3.9c4.5,0,6.1-2.3,6.1-4.3c0-2.9-3.2-3.8-6.7-4.7
		c-4.5-1.2-9.7-2.5-9.7-8.2c0-4.6,4.1-7.9,9.9-7.9c4.3,0,7.7,1.4,10.2,3.9l-2.4,3.1c-2.1-2.3-5.1-3.3-8.1-3.3
		c-3.1,0-5.2,1.6-5.2,3.9c0,2.5,3,3.3,6.5,4.2c4.6,1.2,9.9,2.6,9.9,8.6c0,4.3-3,8.4-10.5,8.4c-5,0-8.6-1.8-11-4.4L734.4,161.5z"/>
	<path fill="#E93223" d="M758.4,140.8h18.7v3.7h-14.5v8.2h14.3v3.7h-14.3v8.7h14.5v3.7h-18.7V140.8z"/>
</g>
<g>
	<path fill="#E93223" d="M114.8,491.6h22.5v4.4h-17.5v9.8H137v4.4h-17.2v14.9h-5V491.6z"/>
	<path fill="#E93223" d="M142.8,491.6h5v33.6h-5V491.6z"/>
	<path fill="#E93223" d="M160.4,499.8v25.4h-5v-33.6h5.2l18.3,24.7v-24.7h5v33.6h-4.9L160.4,499.8z"/>
	<path fill="#E93223" d="M191.2,491.6h12c10.5,0,17.4,7.1,17.4,16.8c0,9.7-6.9,16.8-17.4,16.8h-12V491.6z M203.2,520.7
		c7.7,0,12.2-5.5,12.2-12.3c0-6.9-4.3-12.4-12.2-12.4h-6.9v24.7H203.2z"/>
</g>
<g>
	<g>
		<g id="Icons_15_">
			<g>
				<path fill="#E93223" d="M173.6,462.9H158c-1.2,0-2.2,1-2.2,2.2c0,1.2,1,2.2,2.2,2.2h15.6c1.2,0,2.2-1,2.2-2.2
					C175.8,463.9,174.8,462.9,173.6,462.9z"/>
				<path fill="#E93223" d="M161.8,475.6c0.3,2,2,3.5,4,3.5c2,0,3.7-1.5,4-3.5c2.7-0.2,4.8-2.4,4.8-5.1H157
					C157,473.3,159.1,475.5,161.8,475.6z"/>
				<path fill="#E93223" d="M165.8,403.8c1.6,0,2.9-1.3,2.9-2.9v-6.8c0-1.6-1.3-2.9-2.9-2.9c-1.6,0-2.9,1.3-2.9,2.9v6.8
					C162.9,402.5,164.2,403.8,165.8,403.8z"/>
				<path fill="#E93223" d="M146.7,408.1c0.6,0.8,1.5,1.2,2.4,1.2c0.6,0,1.2-0.2,1.7-0.6c1.3-0.9,1.6-2.8,0.6-4.1l-4-5.5
					c-0.9-1.3-2.8-1.6-4.1-0.6c-1.3,0.9-1.6,2.8-0.6,4.1L146.7,408.1z"/>
				<path fill="#E93223" d="M185,450.8c-0.9-1.3-2.8-1.6-4.1-0.6c-1.3,0.9-1.6,2.8-0.6,4.1l4,5.5c0.6,0.8,1.5,1.2,2.4,1.2
					c0.6,0,1.2-0.2,1.7-0.6c1.3-0.9,1.6-2.8,0.6-4.1L185,450.8z"/>
				<path fill="#E93223" d="M139.6,417.8l-6.5-2.1c-1.5-0.5-3.2,0.3-3.7,1.9c-0.5,1.5,0.3,3.2,1.9,3.7l6.5,2.1
					c0.3,0.1,0.6,0.1,0.9,0.1c1.2,0,2.4-0.8,2.8-2C142,420,141.1,418.3,139.6,417.8z"/>
				<path fill="#E93223" d="M200.3,437.6l-6.5-2.1c-1.5-0.5-3.2,0.3-3.7,1.9c-0.5,1.5,0.3,3.2,1.9,3.7l6.5,2.1
					c0.3,0.1,0.6,0.1,0.9,0.1c1.2,0,2.4-0.8,2.8-2C202.7,439.7,201.9,438.1,200.3,437.6z"/>
				<path fill="#E93223" d="M137.8,435.5l-6.5,2.1c-1.5,0.5-2.4,2.1-1.9,3.7c0.4,1.2,1.5,2,2.8,2c0.3,0,0.6,0,0.9-0.1l6.5-2.1
					c1.5-0.5,2.4-2.1,1.9-3.7C141,435.8,139.3,435,137.8,435.5z"/>
				<path fill="#E93223" d="M193,423.5c0.3,0,0.6,0,0.9-0.1l6.5-2.1c1.5-0.5,2.4-2.1,1.9-3.7c-0.5-1.5-2.1-2.4-3.7-1.9l-6.5,2.1
					c-1.5,0.5-2.4,2.1-1.9,3.7C190.6,422.8,191.8,423.5,193,423.5z"/>
				<path fill="#E93223" d="M146.7,450.8l-4,5.5c-0.9,1.3-0.7,3.1,0.6,4.1c0.5,0.4,1.1,0.6,1.7,0.6c0.9,0,1.8-0.4,2.4-1.2l4-5.5
					c0.9-1.3,0.7-3.1-0.6-4.1C149.5,449.2,147.7,449.5,146.7,450.8z"/>
				<path fill="#E93223" d="M184.2,399.2l-4,5.5c-0.9,1.3-0.7,3.1,0.6,4.1c0.5,0.4,1.1,0.6,1.7,0.6c0.9,0,1.8-0.4,2.4-1.2l4-5.5
					c0.9-1.3,0.7-3.1-0.6-4.1C187,397.6,185.2,397.8,184.2,399.2z"/>
				<path fill="#E93223" d="M186.9,429.5c0-11.6-9.4-21.1-21.1-21.1c-11.6,0-21.1,9.4-21.1,21.1c0,4.9,1.7,9.4,4.5,13
					c2.5,3.1,4.8,6.6,6.8,10v7h19.3v-6.8c2-3.3,4.6-7.2,7-10.2C185.2,439,186.9,434.5,186.9,429.5z"/>
			</g>
		</g>
	</g>
</g>
<g>
	<g>
		<circle fill="#FFFFFF" cx="496.5" cy="100" r="3.7"/>
		<circle fill="#FFFFFF" cx="523.5" cy="100" r="3.7"/>
		<circle fill="#FFFFFF" cx="550.5" cy="100" r="3.7"/>
	</g>
</g>
<g>
	<g>
		<circle fill="#FFFFFF" cx="165.8" cy="267.4" r="3.7"/>
		<circle fill="#FFFFFF" cx="165.8" cy="240.4" r="3.7"/>
		<circle fill="#FFFFFF" cx="165.8" cy="213.4" r="3.7"/>
	</g>
</g>
<g>
	<g>
		<circle fill="#FFFFFF" cx="350.3" cy="461.8" r="3.7"/>
		<circle fill="#FFFFFF" cx="377.4" cy="461.8" r="3.7"/>
		<circle fill="#FFFFFF" cx="404.4" cy="461.8" r="3.7"/>
	</g>
</g>
<g>
	<g>
		<circle fill="#FFFFFF" cx="729.3" cy="271.1" r="3.7"/>
		<circle fill="#FFFFFF" cx="729.3" cy="244.1" r="3.7"/>
		<circle fill="#FFFFFF" cx="729.3" cy="217" r="3.7"/>
	</g>
</g>
</svg>
