<?xml version="1.0" encoding="utf-8"?>
<!-- Generator: Adobe Illustrator 18.0.0, SVG Export Plug-In . SVG Version: 6.00 Build 0)  -->
<!DOCTYPE svg PUBLIC "-//W3C//DTD SVG 1.1//EN" "http://www.w3.org/Graphics/SVG/1.1/DTD/svg11.dtd">
<svg version="1.1" id="Layer_1" xmlns="http://www.w3.org/2000/svg" xmlns:xlink="http://www.w3.org/1999/xlink" x="0px" y="0px"
	 viewBox="0 0 600 600" enable-background="new 0 0 600 600" xml:space="preserve">
<g opacity="0.1">
	<g>
		<g>
			<defs>
				<polyline id="SVGID_1_" points="0.4,499.7 0.4,100.3 599.6,100.3 599.6,499.7 				"/>
			</defs>
			<clipPath id="SVGID_2_">
				<use xlink:href="#SVGID_1_"  overflow="visible"/>
			</clipPath>
			<g opacity="0.21" clip-path="url(#SVGID_2_)">
				<path fill="#1593BA" d="M623.6,162.7c-26.7-3-48.5,9.4-69.6,31.6C472.5,280,388.8,286,329.6,290.4c-28.6,2.1-51.7,3.8-66,13.8
					c-66.4,46.9-99.8,45.7-121.8,22.5c-13.9-14.6-23.2-38.1-33.5-63.9c-6.7-16.9-13.8-34.7-22.8-51.7c-28.5-53.8-76.2-99.5-191-80.6
					l0.1-0.4C9.5,111.2,57.3,157.1,85.8,211c9.1,17.1,16.2,34.9,22.9,51.8c10.2,25.7,19.6,49.2,33.4,63.7
					c21.9,23.1,55.1,24.1,121.3-22.6c14.4-10.1,37.4-11.8,66.1-13.9c59.3-4.3,142.8-10.4,224.3-96c21.2-22.3,43.1-34.8,70-31.8
					L623.6,162.7z"/>
				<path fill="#1593BA" d="M623.6,162.8c-27.4-4.7-49.8,7.4-71.9,31.9l0,0c-81.7,87.5-168.4,93.5-229.1,97.7
					c-27.1,1.9-49,3.4-62.9,11.6l0,0c-65.5,43.3-98.1,40.5-119.7,16.8c-13.1-14.4-22.1-36.5-32-60.7c-6.6-16.2-13.5-33.3-22.4-49.6
					C57.4,158.2,9.8,114.2-106,135.1l0.1-0.4C10,113.8,57.6,158,86,210.4c8.9,16.3,15.8,33.5,22.4,49.6
					c9.8,24.1,18.8,46.2,31.9,60.5c21.4,23.5,53.9,26.2,119.2-16.9l0,0c14-8.3,35.9-9.8,63-11.7c60.6-4.1,147.3-10.1,228.9-97.4
					c22.1-24.6,44.8-36.7,72.3-32L623.6,162.8z"/>
				<path fill="#1593BA" d="M623.6,163.1c-28-6.4-51.3,5.2-74.2,32.1l0,0c-81.9,89.5-172.3,95.2-234.4,99.1
					c-25.3,1.6-45.9,2.8-59.3,9.4c-64.7,39.8-96.6,35.2-117.7,11c-12.3-14.1-21-34.9-30.3-57.4c-6.5-15.6-13.3-31.9-21.9-47.5
					c-28.1-50.8-75.4-93.1-192.4-70.2l0.1-0.4C10.6,116.4,58,158.8,86.2,209.8c8.6,15.6,15.4,32,21.9,47.5
					c9.3,22.5,18,43.2,30.3,57.2c21,24,52.7,28.5,117.2-11.2l0,0c13.4-6.6,34-7.9,59.4-9.5c62-3.9,152.2-9.5,234.1-99
					c23-27,46.4-38.6,74.6-32.2V163.1z"/>
				<path fill="#1593BA" d="M623.6,163.4c-28.6-8.2-52.6,2.9-76.5,32.2l0,0c-82.4,92-177,97.1-240.4,100.6
					c-23.2,1.3-42.2,2.3-54.8,7.2c-64,36.3-95.1,29.8-115.8,5c-11.4-13.7-19.7-33.1-28.6-53.9c-6.4-14.9-13-30.5-21.4-45.4
					c-27.8-49.3-74.9-89.9-193.2-64.9l0.1-0.4c118.4-24.9,165.5,15.8,193.5,65.3c8.4,14.8,15,30.5,21.4,45.4
					c8.9,20.8,17.1,40.1,28.5,53.8c20.5,24.6,51.5,31,115.3-5.1l0,0c12.7-5,31.7-6,54.9-7.3c63.3-3.5,157.8-8.6,240.1-100.5
					c24-29.4,48-40.5,76.9-32.2V163.4z"/>
				<path fill="#1593BA" d="M623.5,163.9c-29.3-10.1-53.9,0.4-78.8,32.1l0,0c-83.2,94.8-182.8,99.1-247.3,102
					c-20.7,0.9-37.7,1.6-49.4,5.1c-63.5,32.8-93.9,24.3-114.1-1.2c-10.5-13.3-18.3-31.2-26.5-50.1c-6.2-14.2-12.7-29.1-20.8-43.2
					c-27.7-48-74.5-86.9-194.2-59.8l0.1-0.4c119.8-27,166.7,12,194.4,60.1c8.1,14.2,14.6,29.1,20.9,43.3c8.3,19,16,36.8,26.5,50
					c20.1,25.4,50.3,33.9,113.6,1.1l0,0c11.8-3.5,28.8-4.3,49.6-5.2c64.5-2.8,164-7.2,247.1-101.9c24.9-31.8,49.7-42.3,79.1-32.2
					V163.9z"/>
				<path fill="#1593BA" d="M623.4,164.5c-29.8-12-55.2-2.2-81,32l0,0c-84.2,98.1-190,101.3-255.4,103.3c-17.7,0.5-32.4,0.9-43,3.2
					c-63.3,29.5-92.8,18.6-112.6-7.9c-9.5-12.7-16.7-28.9-24.3-46c-6-13.6-12.4-27.8-20.2-41.1c-27.4-46.6-73.9-83.7-195-54.4
					l0.1-0.4C13.2,123.8,59.8,161,87.3,207.8c7.9,13.4,14.2,27.6,20.2,41.2c7.6,17.1,14.8,33.3,24.2,45.9
					c19.7,26.3,49.1,37.1,112.1,7.7l0,0c10.6-2.2,25.3-2.6,43.1-3.2c65.3-2,171.1-5.1,255.2-103.2l0,0c25.9-34.3,51.3-44.1,81.3-32
					L623.4,164.5z"/>
				<path fill="#1593BA" d="M623.4,165.1c-30.4-14-56.5-5.1-83.2,31.7l0,0c-85.7,102.3-199.2,103.6-265,104.4
					c-14.2,0.2-26.1,0.3-35,1.4c-63.4,26.1-92,12.7-111.5-15.1c-8.3-11.9-14.8-26.3-21.7-41.4c-5.9-12.9-12.1-26.4-19.6-39.1
					c-27.1-45.2-73.2-80.7-195.9-49.1l0.1-0.4c122.8-31.5,169,4,196.3,49.4c7.6,12.7,13.7,26.1,19.6,39.1
					c6.8,15.1,13.4,29.5,21.7,41.3c19.3,27.6,47.8,40.9,111,14.9h0.1c9-1.1,20.9-1.3,35.1-1.4c65.7-0.8,179.1-2.2,264.7-104.3
					c26.8-36.9,53-45.8,83.6-31.8L623.4,165.1z"/>
				<path fill="#1593BA" d="M623.3,165.9c-30.9-16-57.8-8-85.5,31.4l0,0l0,0c-88,107.5-211.6,105.9-276.5,105.1
					c-9.8-0.1-18.3-0.2-25.1,0.1c-64.1,22.8-91.8,6.2-110.9-23.2c-6.9-10.7-12.7-23-18.6-35.8c-5.8-12.4-11.7-25.1-19-37.1
					c-26.8-44-72.5-77.6-196.9-43.7l0.1-0.4c124.5-33.9,170.3-0.1,197.3,44c7.3,12,13.3,24.8,19,37.2c6,12.8,11.7,25.1,18.6,35.8
					c18.9,29.3,46.4,45.7,110.3,23h0.1c6.8-0.3,15.3-0.2,25.1-0.1c64.9,0.8,188.3,2.4,276.2-105l0,0l0,0
					c27.8-39.5,54.7-47.6,85.8-31.4V165.9z"/>
				<path fill="#1593BA" d="M623.2,166.8c-31.5-18.2-59-11.1-87.6,30.9l0,0l0,0l0,0c-91.8,114.9-229.6,108.1-290.9,105
					c-4.5-0.2-8.6-0.4-12.3-0.5c-84.4,25-104-16-125.6-61.7c-5.6-11.8-11.4-23.9-18.4-35.2c-26.6-42.7-71.8-74.4-198-38.1l0.1-0.4
					C16.7,130.5,62,162.4,88.6,205.2c7,11.4,12.8,23.4,18.4,35.3c21.6,45.4,41,86.3,125.1,61.4h0.1c3.7,0.1,7.8,0.3,12.3,0.5
					c61.3,3,199,9.8,290.7-104.9l0,0l0,0c28.7-42.1,56.3-49.2,88-31L623.2,166.8z"/>
				<path fill="#1593BA" d="M623.1,167.7c-32-20.4-60.2-14.3-89.9,30.3l0,0c-47.9,61.4-110.5,88.8-168,100.2
					c-57.4,11.3-109.7,6.6-136.8,3.6c-81.3,19.1-100.8-21-121.8-64.3c-5.5-11.2-11-22.8-17.8-33.5c-26.3-41.4-71-71.2-199-32.4
					l0.1-0.4c128.1-38.8,173-8.9,199.3,32.7c6.8,10.7,12.4,22.2,17.9,33.5c20.9,43.1,40.3,83,121.3,64h0.1
					c27.1,3,79.3,7.8,136.7-3.6c57.4-11.3,120-38.7,167.9-100.1c29.7-44.8,58-50.9,90.2-30.5L623.1,167.7z"/>
				<path fill="#1593BA" d="M623,168.8c-0.6-0.5-1.3-0.9-1.9-1.3c-31.7-21.1-60.1-15.4-90.1,31l0,0l0,0l0,0
					c-13,17.1-27.3,31.7-42.4,44c-15.1,12.3-31,22.4-47.3,30.7c-83.7,42.4-176.8,35.6-216.6,28.4c-78.2,13.3-97.6-25.8-117.9-66.9
					C101.3,224,96,213,89.4,203c-26.1-40.2-70.2-68-200.2-26.5l0.1-0.4c130.1-41.4,174.3-13.4,200.4,26.9
					c6.6,10.2,12,21.1,17.3,31.8c20.2,40.9,39.5,79.8,117.4,66.6h0.1c39.8,7.2,132.8,14.1,216.4-28.3c16.3-8.3,32.2-18.4,47.3-30.7
					c15.1-12.3,29.4-26.9,42.4-44l0,0l0,0c30.1-46.6,58.7-52.3,90.6-31c0.6,0.4,1.2,0.8,1.8,1.2L623,168.8z"/>
				<path fill="#1593BA" d="M622.8,170c-2-1.5-4-2.9-6-4.2c-30.6-20.1-58.6-14-88.2,33.1l0,0l0,0C516,216,502,230.6,487,243
					c-14.9,12.4-30.7,22.6-47.1,31c-83.6,43.1-178.7,37.6-219.3,27.4c-75.1,7.7-94.3-30.5-114-69.5c-5.2-10.3-10.4-20.7-16.7-30.3
					c-25.7-38.9-69.1-64.7-201.1-20.5l0.1-0.4c132.1-44.2,175.6-18.3,201.3,20.8c6.3,9.6,11.6,20,16.8,30.3
					c19.6,38.8,38.8,76.9,113.6,69.2h0.1c40.6,10.2,135.5,15.8,219.1-27.3c16.3-8.4,32.1-18.6,47-31s28.9-27,41.5-44l0,0
					c29.9-47.3,58-53.4,88.8-33.2c1.9,1.3,3.9,2.6,5.8,4.1V170z"/>
				<path fill="#1593BA" d="M622.7,171.3c-3.3-2.6-6.4-5-9.6-7c-29.7-19.2-57.3-12.6-86.7,35.1l0,0v0.1c-12.3,17-26.1,31.6-40.8,44
					c-14.8,12.5-30.5,22.8-46.8,31.4c-83.6,43.9-180.5,39.5-222.1,26.3c-71.9,2.2-91.1-35.2-110.1-72.1c-5.1-10-10.2-19.8-16.3-28.9
					c-25.3-37.7-68.1-61.3-202.2-14.3l0.1-0.4c134.2-47,177-23.3,202.5,14.6c6.1,9.1,11.2,19,16.3,29
					c18.9,36.8,38.1,74.1,109.6,71.9h0.1c41.4,13.2,138.3,17.6,221.8-26.3c16.3-8.5,32-18.9,46.7-31.4c14.8-12.5,28.4-27,40.7-44
					V199c29.6-47.9,57.4-54.6,87.2-35.2c3.1,2,6.3,4.3,9.5,7L622.7,171.3z"/>
				<path fill="#1593BA" d="M622.5,172.6c-4.4-3.9-8.7-7.2-13.1-10c-28.9-18.6-56.2-11.4-85.5,37.1l0,0l-0.1,0.1
					c-11.9,16.9-25.3,31.5-39.9,44.1c-14.6,12.5-30.3,23-46.5,31.7C353.8,320.2,255,317,212.7,300.9c-68.7-3-87.8-39.7-106.1-74.8
					c-5-9.6-10-19.1-15.8-27.8c-24.9-36.6-67-57.8-203.2-7.9l0.1-0.4C23.9,140.1,66,161.4,91.2,198.2c5.9,8.7,10.8,18.1,15.9,27.8
					c18.2,34.9,37.2,71.5,105.7,74.5h0.1c42.2,16.1,140.9,19.4,224.4-25.1c16.3-8.7,31.9-19.1,46.5-31.6s28-27.1,39.9-44l0.1-0.1
					l0,0c29.4-48.6,56.9-55.8,86-37.1c4.3,2.7,8.6,6,12.9,9.8L622.5,172.6z"/>
				<path fill="#1593BA" d="M622.3,174.1c-5.5-5.1-10.8-9.4-16.2-12.8c-28.2-17.9-55.3-10.3-84.4,38.9l0,0l0,0l0,0
					c-11.4,16.9-24.7,31.5-39,44.1c-14.4,12.6-30,23.2-46.3,32c-83.6,45.3-184.3,43.3-227.5,24.2c-65.5-8-84.5-44-102.1-77.3
					c-4.9-9.4-9.8-18.6-15.5-26.8c-24.7-35.5-65.9-54.2-204.2-1.4l0.1-0.4c138.4-52.8,179.7-34,204.4,1.6
					c5.8,8.3,10.6,17.5,15.6,26.9c17.3,33.2,36.3,69.1,101.6,77.1h0.1c43,19.1,143.7,21.1,227.2-24.1c16.3-8.8,31.8-19.4,46.2-32
					c14.4-12.6,27.6-27.2,39-44.1l0,0l0,0c29.3-49.4,56.5-57,85-38.9c5.3,3.4,10.7,7.7,16.1,12.7L622.3,174.1z"/>
				<path fill="#1593BA" d="M622.1,175.7c-6.4-6.4-12.9-11.7-19.2-15.7c-27.7-17.4-54.6-9.3-83.6,40.7l0,0l0,0l0,0
					c-11,16.8-24,31.4-38.2,44.2c-14.2,12.7-29.7,23.4-46,32.4c-83.5,46-186.2,45.2-230.2,23.2c-62.2-12.8-81.1-48.2-98.1-80
					c-4.9-9.2-9.7-18.1-15.3-26.1c-24.2-34.4-64.7-50.4-205.1,5.5l0.1-0.4C27,143.5,67.4,159.6,91.8,194.2
					c5.6,8,10.4,16.9,15.3,26.1c16.9,31.6,35.7,67,97.7,79.7h0.1c43.9,22,146.5,22.8,229.9-23.2c16.3-8.9,31.8-19.6,45.9-32.4
					c14.2-12.7,27.1-27.3,38.1-44.1l0,0c29.2-50.2,56.2-58.2,84.1-40.8c6.3,3.9,12.7,9.2,19.1,15.6L622.1,175.7z"/>
				<path fill="#1593BA" d="M621.9,177.3c-7.4-7.9-14.7-14.2-21.9-18.7c-27.2-16.9-54-8.3-83,42.5l0,0l0,0
					c-10.6,16.7-23.3,31.4-37.4,44.2c-14,12.7-29.5,23.6-45.7,32.7c-83.5,46.8-188.1,47.1-233,22.1c-59-17.3-77.7-52.3-93.9-82.6
					c-4.9-9.2-9.6-17.9-15.1-25.6c-23.9-33.3-63.5-46.4-205.9,12.5l0.1-0.5c142.5-59,182.2-45.7,206.2-12.3
					c5.6,7.7,10.2,16.5,15.2,25.7c16.2,30.2,34.8,65.1,93.7,82.3h0.1c44.7,25,149.2,24.6,232.6-22.1c16.3-9.1,31.6-19.9,45.6-32.6
					c14-12.7,26.7-27.4,37.3-44.2l0,0l0,0c29.1-51,56-59.5,83.4-42.5c7.2,4.5,14.5,10.8,21.9,18.6L621.9,177.3z"/>
				<path fill="#1593BA" d="M621.7,179c-8.3-9.3-16.5-16.7-24.6-21.7c-26.8-16.5-53.4-7.4-82.4,44.2l0,0l0,0
					c-10.3,16.7-22.6,31.4-36.5,44.2c-13.9,12.9-29.3,23.8-45.4,33c-83.4,47.5-190,49-235.7,21.1c-55.7-21.5-74.3-56.1-89.9-85.1
					c-4.9-9.3-9.6-17.9-15.1-25.4c-23.6-32.3-62.3-42.3-206.7,19.8l0.1-0.5c144.4-62.1,183.3-52,207-19.6
					c5.5,7.5,10.2,16.2,15.1,25.5c15.5,28.9,34,63.5,89.6,84.9h0.1c45.5,27.9,151.9,26.4,235.3-21.1c16.2-9.2,31.6-20.2,45.4-33
					c13.9-12.8,26.2-27.5,36.4-44.2l0,0c29.1-51.8,55.9-60.8,83-44.2c8.1,5,16.3,12.3,24.5,21.5L621.7,179z"/>
				<path fill="#1593BA" d="M621.5,180.8c-9.1-10.8-18.1-19.2-27.1-24.7c-26.5-16.2-53-6.6-82,45.8l0,0c-1.3,2.2-2.6,4.3-3.9,6.4
					c-36.3,56.1-98.7,89.4-160,103.5c-61.4,14.2-121.6,9.1-153.9-11.4c-0.5-0.3-0.9-0.6-1.4-0.9c-52.5-25.3-70.8-59.7-85.7-87.6
					c-5-9.5-9.7-18.1-15.1-25.5c-23.2-31.3-61.2-37.9-207.5,27.4l0.1-0.5c146.3-65.3,184.3-58.6,207.7-27.1
					c5.5,7.4,10.1,16.1,15.2,25.5c14.8,27.8,33.1,62,85.5,87.4l0,0c0.5,0.3,0.9,0.6,1.4,0.9c32.2,20.5,92.4,25.4,153.6,11.3
					C409.5,297.3,471.8,264,508.1,208c1.4-2.1,2.6-4.2,3.9-6.4c29.1-52.6,55.8-62.1,82.6-45.8c9,5.5,17.9,13.9,27,24.5L621.5,180.8z
					"/>
				<path fill="#1593BA" d="M621.3,182.7c-9.9-12.3-19.7-21.9-29.5-27.8c-26.2-15.8-52.7-5.9-81.7,47.4l0,0
					c-3.6,6.3-7.6,12.3-11.9,18.1c-36.9,50.1-96.7,80.7-155.5,93.7s-116.5,8.3-149.3-12.1c-1.5-0.9-2.9-1.9-4.3-2.9
					c-49.2-28.9-67.2-63.1-81.5-90c-5.1-9.8-9.8-18.6-15.3-25.8c-22.8-30.3-60-33.3-208,35.2l0.1-0.5
					c148.1-68.5,185.3-65.4,208.3-34.9c5.5,7.2,10.2,16.1,15.3,25.9c14.2,26.9,32.2,60.9,81.4,89.8l0,0c1.4,1,2.8,2,4.3,2.9
					c32.6,20.3,90.2,24.9,148.9,12s118.4-43.5,155.3-93.6c4.3-5.8,8.2-11.8,11.8-18.1c29.1-53.5,55.8-63.5,82.2-47.5
					c9.8,6,19.6,15.4,29.4,27.6L621.3,182.7z"/>
				<path fill="#1593BA" d="M621.1,184.7c-10.6-13.8-21.1-24.6-31.8-30.9c-26-15.6-52.5-5.2-81.5,49c-5.6,10.1-12.1,19.6-19.4,28.4
					c-37.2,45.2-94.7,73.4-151.1,85.3s-111.7,7.6-144.7-12.5c-2.6-1.6-5-3.2-7.2-4.9c-46.1-32.2-63.9-66.2-77.5-92.4
					c-5.3-10.2-10-19.2-15.5-26.5c-22.5-29.3-58.8-28.4-208.6,43.2l0.1-0.5C33.6,151.2,70,150.5,92.6,180
					c5.6,7.2,10.2,16.3,15.6,26.5c13.5,26.1,31.3,60.1,77.3,92.2l0,0c2.3,1.8,4.7,3.4,7.2,4.9c32.9,20,88.1,24.4,144.4,12.5
					c56.3-11.9,113.7-40.2,150.9-85.3c7.2-8.8,13.7-18.3,19.4-28.4c29.2-54.4,55.9-64.7,82-49c10.6,6.4,21.1,17,31.7,30.7V184.7z"/>
				<path fill="#1593BA" d="M620.8,187.3c-11.4-15.6-22.7-27.6-34.1-34.4c-25.5-15.2-51.8-4.3-80.9,50.5
					c-7.2,13.7-16.3,26.2-26.7,37.6c-37.4,41-92.7,67.1-147,78.1c-54.3,11-107.5,6.8-140.8-13c-3.7-2.2-7.1-4.6-10.3-7.2
					c-43.1-35.1-60.5-69.3-73.5-94.9c-5.5-10.8-10.2-20.1-15.8-27.3c-21.9-28.2-57.4-23.1-208.7,51.8l0.2-1.6
					c151.2-74.7,187-79.5,209.5-50.7c5.6,7.2,10.4,16.6,15.9,27.5c12.9,25.5,30.2,59.5,73.1,94.3c3.1,2.5,6.5,4.9,10.1,7
					c32.9,19.6,85.7,23.7,139.7,12.7c54-11,109.2-37,146.5-77.9c10.4-11.3,19.4-23.8,26.5-37.4c29.4-55.5,56.3-66.4,82.5-50.7
					c11.4,6.8,22.6,18.5,33.8,33.7L620.8,187.3z"/>
			</g>
		</g>
	</g>
	<g>
		<g>
			<defs>
				<polyline id="SVGID_3_" points="0.4,499.7 0.4,100.3 599.6,100.3 599.6,499.7 				"/>
			</defs>
			<clipPath id="SVGID_4_">
				<use xlink:href="#SVGID_3_"  overflow="visible"/>
			</clipPath>
			<g opacity="0.48" clip-path="url(#SVGID_4_)">
				<path fill="#1593BA" d="M630.5,320.6c-14,1.8-28.3,4.1-42.3,6.4c-52,8.5-100.6,16.5-119.9-8.5c-40.2-52.1-70.8-68.2-95.8-66.2
					s-44.6,21.9-63.1,42.1c-43.5,47.4-87.9,72.9-130.7,82.4c-28,6.2-55.5,5.6-81.6-0.4C71,370.4,46,359.3,23,344.5
					c-14.1-9-27.5-19.4-40.1-30.7v0.4c12.5,11.2,25.8,21.6,39.8,30.5c23.1,14.8,48,25.9,74.3,31.9c26.2,6,53.7,6.6,81.8,0.4
					c42.9-9.5,87.3-35.1,130.9-82.6c18.4-20,37.9-40,62.8-41.9c24.9-2,55.3,14.1,95.5,66.1c19.4,25.1,68.1,17.1,120.2,8.6
					c14-2.3,28.2-4.6,42.3-6.4L630.5,320.6L630.5,320.6L630.5,320.6z"/>
				<path fill="#1593BA" d="M630.5,323.2c-11.6,1.6-23.4,3.7-35.1,5.6c-51.3,8.7-100.3,17-121.5-7.9
					c-58.2-70.3-91.4-76.2-122.4-58.3c-12.9,7.4-25.5,19-39.2,31.8l-1.8,1.7l0,0c-36.7,37.2-72.5,60.5-106.8,72.9
					c-33.8,12.2-66.2,13.9-96.7,8c-30.5-5.9-59.1-19.3-85.4-37.4c-13.5-9.3-26.5-19.9-38.7-31.3v0.5c12.2,11.3,25.1,21.8,38.5,31
					c26.3,18.1,55,31.6,85.5,37.4c30.5,5.9,63,4.2,96.9-8.1c34.4-12.5,70.2-35.7,106.9-73l0,0l1.8-1.7
					c13.7-12.7,26.3-24.3,39.1-31.8c30.8-17.7,63.9-11.9,121.9,58.2l0,0c21.3,25.1,70.4,16.8,121.9,8.1c11.6-2,23.4-4,35-5.6
					L630.5,323.2L630.5,323.2L630.5,323.2z"/>
				<path fill="#1593BA" d="M630.5,325.9c-9.1,1.4-18.5,3-27.7,4.7c-50.5,8.9-100,17.6-123.3-7.4l0,0c-63.8-72.1-93-77.9-127.4-56.7
					c-10.8,6.7-22.1,16-35.3,26.9l0,0c-1.8,1.4-3.5,2.9-5.3,4.4l0,0C194.2,409.2,97.7,391.2,20.7,334.6C7.5,325-5,314.2-17.1,302.8
					v0.5c12,11.4,24.5,22.1,37.5,31.6c77.2,56.7,173.8,74.8,291.4-36.8c1.8-1.5,3.6-3,5.3-4.4l0,0c13.1-10.8,24.4-20.2,35.2-26.8
					c34.2-21.1,63.3-15.2,126.8,56.6l0,0c23.4,25.1,72.9,16.4,123.7,7.4c9.2-1.6,18.5-3.3,27.6-4.7L630.5,325.9L630.5,325.9z"/>
				<path fill="#1593BA" d="M630.5,328.7c-6.7,1.2-13.5,2.4-20.3,3.7c-49.7,9.1-99.7,18.3-125.1-6.7l0,0
					c-71.2-75.2-94.3-80.3-135.6-53c-8.7,5.8-18.4,13-29.4,21.3c-2.3,1.8-4.7,3.5-7.4,5.6l0,0c-126,112.3-217.8,88.8-292.8,30.2
					c-12.8-10-25.1-21-36.9-32.5v0.5c11.8,11.4,24,22.3,36.7,32.2c75.1,58.7,167.1,82.3,293.3-30.2l0,0c2.4-1.8,4.9-3.7,7.4-5.6
					c11-8.3,20.6-15.6,29.3-21.3c41.1-27.2,64.2-22,135.2,53l0,0c25.5,25.2,75.6,16,125.4,6.8c6.8-1.2,13.5-2.5,20.2-3.7
					L630.5,328.7L630.5,328.7L630.5,328.7z"/>
				<path fill="#1593BA" d="M630.5,331.6c-4.3,0.8-8.5,1.6-12.9,2.4c-48.9,9.4-99.3,19.1-127-6c-89.4-88.3-96.4-83.4-168.9-32.4
					c-2.5,1.8-5.1,3.6-8.1,5.7l0,0c-134.5,113.2-221.4,84-294.4,23.6c-12.5-10.4-24.5-21.6-36.4-33.2v0.5
					c11.7,11.5,23.7,22.7,36.1,32.9c73.1,60.5,160.2,89.9,294.9-23.5c2.6-1.8,5.3-3.8,8.1-5.7c72.3-50.8,79.3-55.7,168.4,32.3l0,0
					c27.8,25.3,78.4,15.5,127.3,6.1c4.3-0.8,8.5-1.6,12.8-2.4L630.5,331.6L630.5,331.6L630.5,331.6z"/>
				<path fill="#1593BA" d="M630.5,334.5c-1.8,0.3-3.5,0.7-5.3,1.1c-47.9,9.7-98.9,20-128.9-5.3c-1.8-1.7-4.7-4.3-7.4-6.8
					c-42.7-39.5-64.1-59.3-85.1-62.4c-20.9-3.1-41.3,10.4-82,37.3c-2.5,1.6-5,3.3-7.1,4.7l0,0c-143.3,114-225,79-295.9,16.9
					C6.7,309.2-5.2,297.7-17,286v0.5c11.7,11.6,23.6,23,35.7,33.6c71.1,62.3,152.8,97.4,296.4-16.8c2.8-1.8,4.9-3.3,7.1-4.7
					c40.6-26.9,60.9-40.4,81.7-37.2c20.8,3.1,42.1,22.9,84.9,62.4c2,1.9,4.2,3.9,7.4,6.8l0,0c30.1,25.4,81.3,15,129.2,5.3
					c1.8-0.3,3.5-0.7,5.2-1.1L630.5,334.5L630.5,334.5L630.5,334.5z"/>
				<path fill="#1593BA" d="M630.5,337.7c-46.3,9.8-96.6,20-128.6-4.9c-11.2-9.7-20.9-18.3-29.5-25.9
					c-30.5-27.1-46.9-41.7-64.2-44.3c-20.3-3-41.7,10.4-88.2,39.8l-4.1,2.6l0,0c-174.7,131.8-249,58.4-327.6-19.2
					c-1.8-1.8-3.5-3.5-5.3-5.3v0.5c1.7,1.7,3.4,3.3,5.1,5c78.7,77.7,153.3,151.2,328.1,19.2l4.1-2.6c46.4-29.3,67.8-42.7,87.9-39.7
					c17.2,2.6,33.6,17.2,64.1,44.2c8.6,7.7,18.4,16.3,29.5,26l0,0c32.1,25.1,82.6,14.9,128.9,5L630.5,337.7L630.5,337.7z
					 M316.1,305.1L316.1,305.1L316.1,305.1L316.1,305.1z"/>
				<path fill="#1593BA" d="M630.5,340.8c-43.1,9.6-90.3,18-123-5.8c-17.9-14.4-31.8-26.7-43.3-36.8c-54.1-47.7-54.4-47.9-147.3,8.3
					l0,0C141.3,432.7,73.7,365.3,0.3,291.9c-5.7-5.7-11.4-11.4-17.3-17.1v0.5c5.8,5.6,11.4,11.2,17,16.9
					c73.6,73.5,141.3,141.1,317.1,14.8c92.6-56.1,92.9-55.9,146.8-8.4c11.5,10.2,25.5,22.5,43.3,36.8l0,0
					c32.8,23.8,80,15.4,123.3,5.8V340.8z"/>
				<path fill="#1593BA" d="M630.5,344.1c-40.1,9.2-84.2,15.9-117.4-6.6c-23.2-17.5-39.6-32.2-52.5-43.7
					c-45.2-40.4-46.5-41.6-142.6,14.6l0,0C140.5,429.8,78.6,366.4,10,296.1c-8.8-9-17.7-18.1-27-27v0.5c9.1,8.8,18,17.8,26.7,26.7
					c68.7,70.4,130.7,133.9,308.5,12.2l0,0c95.8-56.1,97.2-54.8,142.1-14.6c12.9,11.5,29.3,26.2,52.6,43.7l0,0
					c33.3,22.6,77.5,15.9,117.6,6.7L630.5,344.1L630.5,344.1z"/>
				<path fill="#1593BA" d="M630.5,347.5c-37.2,8.6-78.4,13.6-111.9-7.6c-27.7-19.4-45.4-35.9-58.8-48.3
					c-38.7-35.8-41-38.1-140.9,18.6l0,0c-180,117.6-237,57-301.2-11c-11.1-11.9-22.5-24-34.8-35.4v0.5
					c12.2,11.4,23.6,23.4,34.7,35.1c64.2,68.1,121.4,128.8,301.6,11c99.5-56.5,101.9-54.2,140.4-18.6c13.4,12.4,31.2,28.8,58.8,48.4
					l0,0c33.5,21.3,74.8,16.3,112.1,7.7L630.5,347.5L630.5,347.5L630.5,347.5z"/>
				<g>
					<path fill="#1593BA" d="M630.5,350.9c-34.4,7.9-72.8,11.3-106.3-8.6c-31.6-20.6-49.8-38.5-63.3-51.6
						c-33.8-32.9-37.1-36.1-140.9,21.3l0,0C137.3,426.3,84.3,367.5,24.5,301.2C11.4,286.7-1.9,271.9-17,258.4v0.4
						c15,13.4,28.3,28.1,41.2,42.5c59.9,66.4,113,125.3,296.1,10.8c103.5-57.2,106.8-54,140.4-21.3c13.5,13.1,31.8,31,63.4,51.6l0,0
						c33.5,19.9,72,16.5,106.5,8.7V350.9L630.5,350.9z M524.3,342.3L524.3,342.3L524.3,342.3z"/>
				</g>
				<g>
					<path fill="#1593BA" d="M630.5,354.2c-31.7,7-67.4,8.9-100.6-9.6c-34.9-21.3-53.3-40.3-66.6-54c-30-31.1-34.1-35.3-142.1,23.1
						l0,0C135.1,425.2,85.7,367.6,30,302.4c-14.4-16.9-29.3-34.2-47-49.2v0.4c17.6,15,32.4,32.2,46.7,49
						c55.9,65.3,105.3,123,291.7,11.3c107.8-58.2,111.8-54,141.7-23.2c13.3,13.8,31.8,32.8,66.7,54.1l0,0
						c33.3,18.6,69.1,16.7,100.8,9.7L630.5,354.2L630.5,354.2z M321.4,313.9L321.4,313.9L321.4,313.9z"/>
				</g>
				<path fill="#1593BA" d="M630.5,357.6c-29.2,6-62.4,6.5-95.1-10.6c-37.9-21.4-56-41.6-69-56c-27-30-31.7-35.1-144.2,24.4l0,0
					C132.7,424.5,86.5,367.4,34.6,303C19.2,284,3.3,264.2-17,248.1v0.4c20.2,16.1,36,35.8,51.3,54.7c52,64.4,98.3,121.7,288.1,12.4
					l0,0c112.3-59.5,117-54.2,143.8-24.4c13,14.4,31.2,34.6,69.1,56.1l0,0c32.8,17.1,66,16.7,95.3,10.7L630.5,357.6L630.5,357.6z"/>
				<path fill="#1593BA" d="M630.5,360.9c-26.8,4.8-57.6,4.1-89.5-11.6l0,0c-40.6-21.3-58.2-42.5-70.8-57.5
					c-24.4-29.4-29.7-35.6-147,25.3l0,0C130,424.3,86.7,367.2,38.5,303.4c-16-21.2-32.6-43.1-55.5-60.1v0.4
					c22.7,16.9,39.2,38.7,55.2,59.8c48.4,63.9,91.7,121.2,285.3,14c117.1-60.8,122.2-54.6,146.5-25.4c12.6,15.1,30.2,36.3,70.8,57.6
					l0,0c31.9,15.7,62.8,16.5,89.7,11.6V360.9z"/>
				<path fill="#1593BA" d="M630.5,364.1c-24.6,3.7-53.2,1.9-83.9-12.4l0,0c-43-20.9-60-43-72.1-58.8c-22.3-29.2-28-36.5-150.3,25.9
					l0,0C127,424.1,86.5,366.8,41.6,303.1c-16.4-23.2-33.3-47.3-58.7-64.5v0.4c25.2,17.3,42.1,41.2,58.4,64.3
					c45,63.7,85.5,121.2,283.1,15.8l0,0c122-62.3,127.6-55.1,149.8-26.1c12.1,15.8,29.1,37.9,72.2,58.8l0,0
					c30.8,14.3,59.4,16,84,12.4L630.5,364.1L630.5,364.1L630.5,364.1z"/>
				<path fill="#1593BA" d="M630.5,367.1c-22.6,2.4-49-0.1-78.3-13l0,0c-45.3-20.3-61.5-43.4-73-59.9
					c-20.5-29.3-26.5-37.7-153.9,26.4l0,0c-201.5,103.6-239.4,45.6-281-18c-16.5-25.2-33.5-51.2-61.4-68.5v0.4
					c27.8,17.3,44.7,43.2,61.1,68.3c41.7,63.8,79.6,121.9,281.5,18.1l0,0c127.1-63.9,133-55.5,153.4-26.5
					c11.6,16.5,27.8,39.5,73.1,59.9l0,0c29.4,12.9,55.9,15.4,78.5,13L630.5,367.1L630.5,367.1z"/>
				<path fill="#1593BA" d="M630.5,369.5c-20.7,1.3-44.9-1.9-72.5-13.3c-47.3-19.6-62.6-43.4-73.5-60.5
					c-19-29.7-25.3-39.5-158.3,26.5c-205.5,102-240.9,43.3-279.2-20.4c-16.4-27.2-33.3-55.3-64.1-72.3v1.3
					c30.1,17,46.9,44.7,63,71.5c38.7,64.2,74.3,123.3,280.9,20.8c132-65.5,138.1-56,156.6-27c11,17.3,26.4,41.3,74,61
					c27.8,11.5,52.3,14.7,73.1,13.4L630.5,369.5L630.5,369.5z"/>
			</g>
		</g>
	</g>
	<g>
		<g>
			<defs>
				<polyline id="SVGID_5_" points="0.4,499.7 0.4,100.3 599.6,100.3 599.6,499.7 				"/>
			</defs>
			<clipPath id="SVGID_6_">
				<use xlink:href="#SVGID_5_"  overflow="visible"/>
			</clipPath>
			<g opacity="0.38" clip-path="url(#SVGID_6_)">
				<path fill="#1593BA" d="M-15.5,187.7c26-1.8,46.7,11.9,66.4,35.3c75.8,90.7,156.8,100.8,214.1,107.9c27.8,3.5,50,6.2,63.5,17.1
					c62.6,50.6,95.1,51.1,117.4,28.5c14-14.2,24-37.6,34.9-63.3c7.2-16.8,14.8-34.5,24.2-51.4c29.7-53.2,77.7-97.4,188.3-72.9v-0.4
					c-110.8-24.6-158.9,19.8-188.6,73.1c-9.4,16.9-17,34.7-24.2,51.5c-10.9,25.7-20.9,49-34.8,63.1c-22.1,22.4-54.3,21.9-116.8-28.6
					c-13.5-10.9-35.8-13.7-63.6-17.2c-57.3-7.2-138.1-17.3-213.9-107.8c-19.7-23.6-40.5-37.2-66.7-35.4L-15.5,187.7z"/>
				<path fill="#1593BA" d="M-15.4,187.8c26.7-3.5,48.1,9.8,68.5,35.8l0,0C129,316,212.9,326.1,271.6,333.3
					c26.3,3.2,47.4,5.7,60.6,14.8l0,0c61.9,47,93.7,45.6,115.5,22.6c13.3-14,22.9-36,33.3-60.1c7-16.1,14.4-33.2,23.6-49.3
					c29.5-51.7,77.2-94.2,188.8-67.6v-0.4c-111.8-26.6-159.6,16-189.2,67.8c-9.2,16.2-16.6,33.2-23.6,49.4c-10.4,24-20,46-33.3,59.9
					c-21.7,22.8-53.3,24.1-115-22.8l0,0c-13.2-9.1-34.4-11.6-60.7-14.8c-58.6-7-142.5-17.1-218.3-109.6c-20.5-26-42-39.3-68.9-35.8
					L-15.4,187.8z"/>
				<path fill="#1593BA" d="M-15.4,188.1c27.4-5.1,49.5,7.7,70.8,36l0,0c76,94.7,163.5,104.6,223.5,111.4
					c24.5,2.8,44.4,5.1,57.1,12.3c61.2,43.3,92.3,40.2,113.8,16.7c12.5-13.7,21.7-34.4,31.6-56.8c6.8-15.4,14.1-31.8,23.1-47.1
					c29.2-50.2,76.7-90.9,189.3-62.3v-0.4C581,169.2,533.4,210,504.2,260.4c-8.9,15.4-16.2,31.8-23.1,47.2
					c-10,22.3-19.1,43-31.6,56.7c-21.3,23.4-52.2,26.5-113.2-16.8l0,0c-12.7-7.3-32.7-9.6-57.2-12.4c-60-6.7-147.4-16.7-223.4-111.3
					c-21.3-28.4-43.5-41.4-71.1-36.1L-15.4,188.1z"/>
				<path fill="#1593BA" d="M-15.4,188.4c28.1-7,50.9,5.3,72.9,36.2l0,0c76.5,97.2,168.1,106.8,229.4,113.2
					c22.4,2.4,40.8,4.3,52.9,10c60.7,39.8,91.2,34.7,112.1,10.5c11.6-13.4,20.4-32.6,29.7-53.4c6.7-14.8,13.7-30.3,22.5-45
					c28.9-48.8,76.1-87.8,190-57v-0.4c-113.9-30.7-161.2,8.3-190.2,57.3c-8.7,14.7-15.8,30.3-22.5,45c-9.3,20.7-18.1,39.9-29.7,53.2
					c-20.9,24-51.1,29.1-111.7-10.6l0,0c-12.1-5.7-30.5-7.6-53-10c-61.3-6.4-152.8-16.1-229.2-113.2c-22.1-30.9-45-43.3-73.3-36.3
					L-15.4,188.4z"/>
				<path fill="#1593BA" d="M-15.4,188.9c28.8-8.9,52.3,2.9,75.2,36.2l0,0c77,100.1,173.6,109.2,236,115.1c20,1.9,36.6,3.5,47.8,7.5
					c60.3,36.3,90.1,29.1,110.8,4.1c10.7-13,18.9-30.7,27.7-49.6c6.6-14.2,13.4-29,21.8-42.9c28.6-47.4,75.5-84.7,190.6-51.6v-0.4
					c-115.2-33-162.1,4.4-190.9,51.9c-8.5,14-15.3,28.8-21.9,42.9c-8.7,18.9-16.9,36.6-27.6,49.5c-20.5,24.8-50.1,32-110.2-4.2l0,0
					c-11.3-4.1-27.8-5.7-47.9-7.6c-62.4-5.9-158.9-15-235.9-114.9c-23-33.5-46.6-45.2-75.5-36.4L-15.4,188.9z"/>
				<path fill="#1593BA" d="M-15.4,189.5c29.4-10.8,53.6,0.3,77.3,36.2l0,0c77.9,103.5,180.5,111.6,243.9,116.7
					c17.1,1.4,31.4,2.5,41.6,5.2c60.3,32.8,89.3,23.2,109.6-2.8c9.7-12.4,17.3-28.6,25.3-45.6c6.4-13.5,13.1-27.6,21.2-40.8
					c28.4-46,74.8-81.5,191.3-46.2v-0.4c-116.5-35.3-163.1,0.3-191.6,46.5c-8.1,13.2-14.8,27.3-21.2,40.8
					c-8.1,17-15.6,33.1-25.3,45.5c-20.1,25.8-49,35.3-109.1,2.6l0,0c-10.2-2.8-24.5-3.9-41.6-5.3c-63.4-5.1-165.8-13.2-243.7-116.6
					l0,0c-23.8-36-48.1-47.1-77.7-36.3L-15.4,189.5z"/>
				<path fill="#1593BA" d="M-15.3,190.2c30-12.8,55-2.5,79.5,36l0,0c79.3,107.7,189.3,114.4,253.1,118.2c13.7,0.8,25.3,1.6,33.9,3
					c60.5,29.5,88.8,17.1,108.8-10.2c8.5-11.6,15.4-26,22.6-41c6.2-12.9,12.7-26.2,20.5-38.7c28-44.7,74.2-78.4,192-40.7v-0.4
					c-118-37.7-164.2-3.8-192.3,41c-7.9,12.5-14.4,25.9-20.6,38.8c-7.2,15-14.2,29.3-22.6,40.9c-19.8,27.1-47.9,39.3-108.2,10h-0.1
					c-8.7-1.6-20.2-2.2-34-3.1c-63.7-3.9-173.6-10.5-252.9-118.2c-24.4-38.7-49.6-49-79.7-36.1V190.2z"/>
				<path fill="#1593BA" d="M-15.2,190.9c30.6-14.9,56.3-5.4,81.7,35.8l0,0l0,0C147.8,339.9,267.6,344,330.7,346.3
					c9.5,0.3,17.7,0.6,24.3,1.2c61.4,26.1,88.8,10.6,108.4-18.4c7.1-10.5,13.1-22.8,19.4-35.5c6-12.3,12.3-24.9,19.8-36.8
					c27.8-43.3,73.3-75.3,192.8-35.1v-0.4c-119.5-40.2-165.2-8.1-193.1,35.4c-7.6,11.9-13.8,24.5-19.9,36.8
					c-6.2,12.7-12.3,24.9-19.4,35.4c-19.4,28.8-46.8,44.2-107.9,18.2h-0.1c-6.6-0.6-14.8-0.9-24.4-1.2c-63-2.2-182.8-6.3-264-119.4
					l0,0l0,0c-25.5-41.3-51.3-50.9-82.1-35.9L-15.2,190.9z"/>
				<path fill="#1593BA" d="M-15.2,191.9c31.2-17,57.6-8.5,83.8,35.4l0,0l0,0l0,0C153.3,348,287.3,347.5,346.9,347.3
					c4.4,0,8.4,0,11.9,0c80.9,29.3,101.4-11.4,124.3-56.7c5.9-11.7,11.9-23.7,19.2-34.9c27.4-42.1,72.5-72.2,193.5-29.4v-0.4
					c-121.2-42.7-166.3-12.5-193.8,29.7c-7.3,11.2-13.3,23.2-19.2,34.9c-22.7,45.1-43.1,85.7-123.7,56.5h-0.1c-3.5-0.1-7.5,0-12,0
					c-59.6,0.2-193.4,0.7-278-120l0,0l0,0c-26.3-44.1-52.8-52.6-84.2-35.6L-15.2,191.9z"/>
				<path fill="#1593BA" d="M-15.1,192.8c31.8-19.2,59-11.7,86,34.9l0,0c44.1,64.5,103.9,95.3,159.2,109.5
					c55.3,14.2,106.2,11.8,132.6,10c78.2,23.2,98.6-16.6,120.6-59.5c5.8-11.2,11.6-22.6,18.6-33.1c27.1-40.8,71.6-69,194.4-23.6
					v-0.4c-122.8-45.4-167.5-17-194.6,23.9c-7,10.6-12.9,21.9-18.6,33.1c-21.9,42.8-42.3,82.3-120.1,59.3h-0.1
					c-26.3,1.8-77.2,4.2-132.5-10s-115-44.9-159-109.4c-27.2-46.8-54.4-54.4-86.3-35.1L-15.1,192.8z"/>
				<path fill="#1593BA" d="M-15,194c0.6-0.4,1.3-0.8,1.9-1.2c31.6-20,58.9-12.9,86.3,35.6l0,0l0,0l0,0c12,18,25.3,33.5,39.5,46.7
					s29.3,24.2,44.8,33.3c79.6,46.9,170.2,44.4,209.1,38.9c75.4,17.1,95.7-21.7,117-62.4c5.6-10.7,11.2-21.5,17.9-31.4
					c26.7-39.5,70.6-65.8,195.2-17.6v-0.4c-124.7-48.1-168.6-21.8-195.4,17.9c-6.8,10-12.4,20.8-18,31.5
					c-21.2,40.6-41.4,79.2-116.5,62.1h-0.1c-38.9,5.6-129.4,8.1-208.9-38.8c-15.4-9.1-30.5-20.1-44.7-33.3
					c-14.2-13.2-27.5-28.6-39.4-46.6l0,0l0,0c-27.5-48.7-54.9-55.8-86.7-35.7c-0.6,0.3-1.2,0.7-1.8,1.2L-15,194z"/>
				<path fill="#1593BA" d="M-15,195.1c2-1.4,3.9-2.8,5.9-4c30.5-19,57.4-11.4,84.4,37.7l0,0l0,0c11.6,17.9,24.7,33.3,38.7,46.7
					c14,13.3,29,24.4,44.5,33.7c79.5,47.7,171.9,46.5,211.8,37.9c72.5,11.3,92.7-26.6,113.3-65.2c5.4-10.2,10.9-20.5,17.4-29.9
					c26.3-38.3,69.5-62.4,195.9-11.4v-0.4c-126.5-51-169.8-26.7-196.2,11.7c-6.5,9.4-12,19.7-17.4,30
					c-20.5,38.5-40.6,76.2-112.8,64.9h-0.1c-39.8,8.5-132.1,9.8-211.6-37.9c-15.4-9.3-30.4-20.4-44.4-33.7
					c-14-13.3-27-28.7-38.6-46.6l0,0c-27.2-49.3-54.2-56.9-84.9-37.8c-1.9,1.2-3.9,2.5-5.8,3.9L-15,195.1z"/>
				<path fill="#1593BA" d="M-14.8,196.4c3.3-2.5,6.4-4.7,9.6-6.7c29.5-18.1,56.1-10.1,82.8,39.7l0,0v0.1
					c11.2,17.8,24,33.3,37.9,46.6c13.8,13.3,28.7,24.6,44.2,34c79.4,48.4,173.7,48.4,214.5,37c69.7,5.6,89.7-31.4,109.6-68.1
					c5.3-9.8,10.6-19.6,16.9-28.6c26-37.1,68.4-59.1,196.7-5.1v-0.4c-128.4-53.9-170.9-31.8-197,5.4c-6.3,8.9-11.6,18.8-16.9,28.6
					c-19.7,36.5-39.8,73.4-109.2,67.8h-0.1c-40.7,11.4-134.8,11.4-214.2-37c-15.4-9.4-30.3-20.7-44.2-34
					C102,262.3,89.2,246.9,78,229.2v-0.1c-27-49.9-53.6-58-83.4-39.7c-3.1,1.9-6.3,4.1-9.5,6.6L-14.8,196.4z"/>
				<path fill="#1593BA" d="M-14.8,197.8c4.4-3.7,8.7-6.8,13-9.5c28.8-17.5,55-8.9,81.5,41.6l0,0l0.1,0.1
					c10.8,17.7,23.4,33.2,37,46.6s28.5,24.8,44,34.3c79.4,49.1,175.4,50.4,217,36c66.8,0.1,86.7-36.2,105.8-70.9
					c5.2-9.5,10.4-19,16.5-27.4c25.6-36,67.2-55.5,197.5,1.4v-0.4c-130.3-57-172-37.2-197.7-1.2c-6.1,8.5-11.2,17.9-16.5,27.5
					c-19,34.6-38.9,70.8-105.4,70.6h-0.1c-41.6,14.4-137.5,13.1-216.8-36c-15.4-9.5-30.2-20.9-43.9-34.3
					c-13.7-13.4-26.1-28.8-37-46.5l-0.1-0.1l0,0C53.5,179,27.1,170.5-1.9,188.1c-4.2,2.6-8.5,5.7-12.9,9.3V197.8z"/>
				<path fill="#1593BA" d="M-14.6,199.3c5.5-4.9,10.9-9.1,16.2-12.3c28.1-16.9,54-7.9,80.5,43.4l0,0l0,0l0,0
					c10.4,17.7,22.7,33.1,36.2,46.6s28.2,25,43.7,34.7c79.4,49.8,177.2,52.5,219.8,35.1c63.9-5.1,83.6-40.8,102-73.7
					c5.1-9.3,10.2-18.4,16.1-26.5c25.3-34.9,66-51.9,198.1,8.2v-0.5c-132.3-60.1-173.1-42.9-198.4-7.9c-5.9,8.1-11,17.2-16.1,26.5
					c-18.3,32.9-38,68.5-101.6,73.5h-0.1c-42.5,17.3-140.2,14.7-219.5-35.1c-15.4-9.7-30.1-21.1-43.6-34.6s-25.7-28.9-36.2-46.5l0,0
					l0,0c-26.5-51.5-52.6-60.5-80.9-43.5c-5.3,3.2-10.6,7.2-16.1,12.1L-14.6,199.3z"/>
				<path fill="#1593BA" d="M-14.5,200.9c6.5-6.2,12.9-11.3,19.2-15C32.3,169.5,58,179,84.3,231l0,0l0,0l0,0
					c10.1,17.5,22.1,33,35.3,46.6c13.3,13.5,28,25.1,43.4,35c79.3,50.6,179,54.5,222.5,34.2c60.9-10.1,80.6-45.2,98.1-76.5
					c5.1-9.1,10.1-17.9,15.8-25.8c24.9-33.7,64.7-48.1,198.8,15.1v-0.5c-134.2-63.3-174-48.8-199-14.8c-5.8,7.8-10.7,16.7-15.8,25.8
					c-17.5,31.3-37.2,66.3-97.9,76.3h-0.1c-43.4,20.3-143,16.4-222.2-34.2c-15.4-9.8-30.1-21.4-43.3-34.9
					c-13.3-13.5-25.3-29-35.3-46.5l0,0c-26.4-52.3-52.3-61.8-80-45.3c-6.3,3.7-12.6,8.7-19.1,14.9L-14.5,200.9z"/>
				<path fill="#1593BA" d="M-14.4,202.6c7.4-7.6,14.8-13.7,22-17.9c27.1-15.9,52.7-6,78.9,46.9l0,0l0,0c9.7,17.5,21.4,33,34.5,46.6
					c13.1,13.6,27.7,25.3,43.1,35.3c79.2,51.3,180.7,56.5,225.2,33.3c57.9-14.8,77.4-49.4,94.3-79.4c5.1-9.1,10-17.7,15.6-25.3
					c24.4-32.7,63.4-44.2,199.4,22.3v-0.5c-136-66.4-175-54.9-199.6-22c-5.7,7.6-10.6,16.3-15.7,25.3c-16.8,29.9-36.3,64.4-94,79.1
					h-0.1c-44.3,23.2-145.7,18-224.8-33.3c-15.4-10-29.9-21.7-43.1-35.3c-13.1-13.6-24.9-29.1-34.5-46.5l0,0l0,0
					c-26.2-53-51.9-63-79.2-46.9c-7.2,4.2-14.5,10.2-21.9,17.7L-14.4,202.6z"/>
				<path fill="#1593BA" d="M-14.3,204.2c8.4-9,16.6-16.1,24.7-20.8c26.7-15.5,52.1-5.1,78.3,48.6l0,0l0,0
					c9.3,17.4,20.8,32.9,33.7,46.5c12.9,13.7,27.4,25.5,42.9,35.6c79.2,52.1,182.5,58.6,227.9,32.3c54.9-19.1,74.2-53.4,90.3-82
					c5.1-9.1,10-17.7,15.6-25.1c24.1-31.7,62.1-40,199.8,29.8v-0.5c-137.7-69.8-175.9-61.3-200.1-29.5c-5.6,7.4-10.4,16-15.6,25.1
					c-16.1,28.6-35.4,62.8-90.1,81.9H393C347.7,372.5,244.6,366,165.5,314c-15.4-10.1-29.9-21.9-42.8-35.6
					c-12.9-13.7-24.4-29.1-33.7-46.5l0,0c-26.3-53.9-51.9-64.3-78.8-48.7c-8.1,4.7-16.3,11.7-24.6,20.7L-14.3,204.2z"/>
				<path fill="#1593BA" d="M-14.2,206.1c9.2-10.5,18.3-18.6,27.2-23.8c26.3-15.2,51.7-4.3,77.8,50.2l0,0c1.2,2.2,2.4,4.5,3.6,6.6
					c33.1,58.6,92.3,95.3,151.2,112.5c59,17.2,117.7,14.9,149.8-4.4c0.5-0.3,0.9-0.5,1.4-0.9c51.9-23.3,71-57.3,86.5-84.9
					c5.3-9.3,10.1-17.9,15.6-25.1c23.7-30.7,60.7-35.6,200.2,37.4v-0.5c-139.5-73-176.6-68-200.5-37.2c-5.6,7.2-10.4,15.8-15.7,25.2
					c-15.4,27.5-34.5,61.4-86.3,84.7l0,0c-0.5,0.3-0.9,0.6-1.4,0.9c-32,19.2-90.6,21.5-149.5,4.3C187,334.1,127.9,297.5,94.9,239
					c-1.2-2.2-2.4-4.4-3.6-6.6c-26.2-54.8-51.8-65.6-78.4-50.4c-8.9,5.2-17.9,13.3-27.1,23.7L-14.2,206.1L-14.2,206.1z"/>
				<path fill="#1593BA" d="M-14,208c10-12,19.9-21.3,29.7-26.8c26-14.9,51.3-3.5,77.5,51.9l0,0c3.3,6.6,6.8,12.9,10.8,19
					c33.9,52.6,90.7,86.4,147.3,102.3c56.5,15.9,112.7,13.9,145.3-5.3c1.5-0.9,2.9-1.8,4.3-2.7c49-27,67.7-60.9,82.6-87.5
					c5.3-9.7,10.2-18.4,15.8-25.5c23.3-29.7,59.5-30.9,200.5,45.4l-0.1-0.5c-141.1-76.3-177.3-75-200.7-45
					c-5.6,7.1-10.5,15.8-15.8,25.5c-14.8,26.6-33.6,60.3-82.3,87.3l0,0c-1.4,0.9-2.8,1.8-4.3,2.7c-32.4,19.1-88.5,21.1-144.9,5.2
					c-56.5-15.8-113.4-49.6-147.2-102.2c-3.9-6-7.5-12.4-10.8-18.9c-26.2-55.7-51.7-67-77.9-52C5.8,186.5-4,195.7-14,207.6V208z"/>
				<path fill="#1593BA" d="M-13.9,210.1c10.8-13.5,21.5-24,32-29.9c25.8-14.6,51.1-2.8,77.3,53.5c5,10.5,11,20.5,17.7,29.7
					c34.4,47.5,89.1,78.9,143.3,93.6c54.2,14.8,108.1,12.9,140.9-6c2.6-1.5,4.9-3,7.2-4.7c46-30.5,64.5-64.2,78.7-90.1
					c5.6-10.2,10.4-19.1,16-26.1c23-28.7,58.2-26.1,200.7,53.6l-0.1-0.5C557.5,203.5,522.1,201,499,229.9
					c-5.6,7.1-10.6,16-16.1,26.2c-14.2,25.9-32.6,59.5-78.5,89.9l0,0c-2.3,1.6-4.7,3.3-7.2,4.7c-32.7,18.8-86.4,20.7-140.6,5.9
					c-54.2-14.7-108.8-46-143.2-93.5c-6.7-9.3-12.7-19.2-17.7-29.7C69.5,177,44,165.2,18,179.9c-10.5,6-21.1,16.3-31.9,29.7
					L-13.9,210.1z"/>
				<path fill="#1593BA" d="M-13.7,212.8c11.6-15.3,23-27,34.4-33.3c25.3-14.2,50.5-2,76.5,55c6.5,14.2,14.8,27.4,24.4,39.3
					c34.7,43.3,87.4,72.5,139.6,86.1c52.3,13.7,104.1,11.9,137.1-6.6c3.7-2,7.1-4.3,10.3-6.8c43.1-33.6,61.3-67.4,74.9-92.8
					c5.8-10.7,10.7-20,16.3-27c22.3-27.6,56.6-20.7,200.5,62.3l-0.1-1.6c-143.9-83-178.4-89.5-201.3-61.2
					c-5.8,7.1-10.7,16.4-16.5,27.2c-13.5,25.3-31.6,58.9-74.5,92.3c-3.1,2.4-6.4,4.6-10,6.6c-32.6,18.4-84.1,20-136,6.4
					c-52-13.6-104.5-42.7-139.2-85.8c-9.6-12-17.9-25.1-24.3-39.2c-26.4-57.7-52.1-70-78.1-55.3c-11.2,6.3-22.6,17.7-34.1,32.6
					L-13.7,212.8z"/>
			</g>
		</g>
	</g>
</g>
</svg>
